%YAML 1.1
%TAG !u! tag:unity3d.com,2011:
--- !u!114 &11400000
MonoBehaviour:
  m_ObjectHideFlags: 0
  m_CorrespondingSourceObject: {fileID: 0}
  m_PrefabInstance: {fileID: 0}
  m_PrefabAsset: {fileID: 0}
  m_GameObject: {fileID: 0}
  m_Enabled: 1
  m_EditorHideFlags: 0
  m_Script: {fileID: 11500000, guid: 6bd10dcdd2784347b084a72854341fc9, type: 3}
  m_Name: Axe
  m_EditorClassIdentifier: 
  id: dd6e7df4-bb84-4c81-b4a0-2f76303bd391
  icon: {fileID: 21300000, guid: 4075c4781bb5c9f48ab67a0c9e82ec64, type: 3}
  price: 20
  type: 2
  prefab: {fileID: 174004, guid: 6478e3e782a118f45a402645660f05ef, type: 3}
